[
{
  "model": "proplan.tracker",
  "pk": 1,
  "fields": {
    "name": "feature",
    "description": "Features of the project that determine its development and appearance.",
    "status": 1,
    "is_abs": false
  }
},
{
  "model": "proplan.tracker",
  "pk": 2,
  "fields": {
    "name": "optimization",
    "description": "Optimization, updating of libraries, third-party systems or services.",
    "status": 2,
    "is_abs": false
  }
},
{
  "model": "proplan.tracker",
  "pk": 3,
  "fields": {
    "name": "bug",
    "description": "An identified errors in the project.",
    "status": 3,
    "is_abs": true
  }
}
]
